{
	"info": {
		"_postman_id": "e8ba554f-e6b8-4e3d-9227-e0a19b6f563e",
		"name": "t-cash",
		"schema": "https://schema.getpostman.com/json/collection/v2.1.0/collection.json"
	},
	"item": [
		{
			"name": "Temprary",
			"item": [
				{
					"name": "user refresh",
					"request": {
						"method": "POST",
						"header": [],
						"url": {
							"raw": "{{host}}/userRefresh?encKey=8365EDkhuegt7",
							"host": [
								"{{host}}"
							],
							"path": [
								"userRefresh"
							],
							"query": [
								{
									"key": "msisdn",
									"value": "01833184019",
									"disabled": true
								},
								{
									"key": "encKey",
									"value": "8365EDkhuegt7"
								}
							]
						}
					},
					"response": []
				},
				{
					"name": "getBillList",
					"request": {
						"method": "GET",
						"header": [
							{
								"key": "Authorization",
								"value": "Bearer {{jwt}}",
								"type": "text"
							},
							{
								"key": "msisdn",
								"value": "{{msisdn}}",
								"type": "text"
							},
							{
								"key": "requestTime",
								"value": "{{requestTime}}",
								"type": "text"
							}
						],
						"url": {
							"raw": "{{host}}/getList",
							"host": [
								"{{host}}"
							],
							"path": [
								"getList"
							]
						}
					},
					"response": []
				},
				{
					"name": "get ekyc tbl",
					"request": {
						"method": "POST",
						"header": [
							{
								"key": "Authorization",
								"type": "text",
								"value": "Bearer {{jwt}}"
							},
							{
								"key": "msisdn",
								"type": "text",
								"value": "{{msisdn}}"
							},
							{
								"key": "requestTime",
								"type": "text",
								"value": "{{requestTime}}"
							}
						],
						"url": {
							"raw": "{{host}}/get_ekyc_from_tbl",
							"host": [
								"{{host}}"
							],
							"path": [
								"get_ekyc_from_tbl"
							]
						}
					},
					"response": []
				},
				{
					"name": "user delete",
					"request": {
						"method": "POST",
						"header": [
							{
								"key": "Authorization",
								"type": "text",
								"value": "Bearer {{jwt}}",
								"disabled": true
							},
							{
								"key": "msisdn",
								"type": "text",
								"value": "{{msisdn}}",
								"disabled": true
							},
							{
								"key": "requestTime",
								"type": "text",
								"value": "{{requestTime}}",
								"disabled": true
							}
						],
						"url": {
							"raw": "{{host}}/deleteUser?userNumber=8801710754881",
							"host": [
								"{{host}}"
							],
							"path": [
								"deleteUser"
							],
							"query": [
								{
									"key": "userNumber",
									"value": "8801710754881"
								}
							]
						}
					},
					"response": []
				},
				{
					"name": "ekyc refresh",
					"request": {
						"method": "POST",
						"header": [
							{
								"key": "Authorization",
								"type": "text",
								"value": "Bearer {{jwt}}"
							},
							{
								"key": "msisdn",
								"type": "text",
								"value": "{{msisdn}}"
							},
							{
								"key": "requestTime",
								"type": "text",
								"value": "{{requestTime}}"
							}
						],
						"body": {
							"mode": "raw",
							"raw": "",
							"options": {
								"raw": {
									"language": "json"
								}
							}
						},
						"url": {
							"raw": "{{host}}/refresh_ekyc",
							"host": [
								"{{host}}"
							],
							"path": [
								"refresh_ekyc"
							]
						}
					},
					"response": []
				},
				{
					"name": "sync user registration",
					"request": {
						"method": "POST",
						"header": [
							{
								"key": "Authorization",
								"type": "text",
								"value": "Bearer {{jwt}}"
							},
							{
								"key": "msisdn",
								"type": "text",
								"value": "{{msisdn}}"
							},
							{
								"key": "requestTime",
								"type": "text",
								"value": "{{requestTime}}"
							}
						],
						"body": {
							"mode": "formdata",
							"formdata": [
								{
									"key": "nid_no",
									"value": "9108058630",
									"type": "text"
								},
								{
									"key": "dob",
									"value": "1993-07-21",
									"type": "text"
								},
								{
									"key": "applicant_name_ben",
									"value": "নুসরাত মূমতাহানা মিলু",
									"type": "text"
								},
								{
									"key": "applicant_name_eng",
									"value": "NUSRAT MOMTAHANA MILO",
									"type": "text"
								},
								{
									"key": "father_name",
									"value": "নুরুল আমিন খান",
									"type": "text"
								},
								{
									"key": "mother_name",
									"value": "তাহমিনা বেগম",
									"type": "text"
								},
								{
									"key": "spouse_name",
									"value": "none",
									"type": "text"
								},
								{
									"key": "pres_address",
									"value": "বাসা/হোল্ডিং: ১৫৩, গ্রাম/রাস্তা: পূর্ব  টেকপাড়া, কক্সবাজার, ডাকঘর: কক্সবাজার সদর -  ৪৭০০, কক্সবাজার সদর, কক্সবাজার পৌরসভা, কক্সবাজার",
									"type": "text"
								},
								{
									"key": "perm_address",
									"value": "বাসা/হোল্ডিং: ১৫৩, গ্রাম/রাস্তা: পূর্ব  টেকপাড়া, কক্সবাজার, ডাকঘর: কক্সবাজার সদর -  ৪৭০০, কক্সবাজার সদর, কক্সবাজার পৌরসভা, কক্সবাজার",
									"type": "text"
								},
								{
									"key": "id_front_name",
									"value": "231e4f2a75abd78d7553cac824ad0040167135334aaa0d8549175323b888db9a.jpg",
									"type": "text"
								},
								{
									"key": "id_back_name",
									"value": "17291663723d89d54f9dbccad965a23e114451fd9b4b93ce0ebf2310259beed3.jpg",
									"type": "text"
								},
								{
									"key": "gender",
									"value": "F",
									"type": "text"
								},
								{
									"key": "profession",
									"value": "Engineer",
									"type": "text"
								},
								{
									"key": "nominee",
									"value": "Tahmina Begum",
									"type": "text"
								},
								{
									"key": "nominee_relation",
									"value": "Mother",
									"type": "text"
								},
								{
									"key": "mobile_number",
									"value": "01748196033",
									"type": "text"
								},
								{
									"key": "applicant_photo",
									"type": "file",
									"src": "/C:/Users/NusratMomtahana/Downloads/PIC02.jpg"
								},
								{
									"key": "pin",
									"value": "MTIzNA==",
									"type": "text"
								},
								{
									"key": "firstName",
									"value": "Nusrat Momtahana",
									"type": "text"
								},
								{
									"key": "lastName",
									"value": "Milo",
									"type": "text"
								},
								{
									"key": "accountType",
									"value": "GENERAL",
									"type": "text"
								},
								{
									"key": "mno",
									"value": "Robi",
									"type": "text"
								}
							],
							"options": {
								"formdata": {}
							}
						},
						"url": {
							"raw": "{{host}}/user_registration_kyc",
							"host": [
								"{{host}}"
							],
							"path": [
								"user_registration_kyc"
							],
							"query": [
								{
									"key": "crop",
									"value": "1",
									"disabled": true
								}
							]
						}
					},
					"response": []
				},
				{
					"name": "{{host}}/api_middleware-0.0.1-SNAPSHOT/uploadErrorMessage",
					"request": {
						"method": "POST",
						"header": [],
						"body": {
							"mode": "formdata",
							"formdata": [
								{
									"key": "file",
									"type": "file",
									"src": "/D:/reddot git/reddotmfs/api_middleware/src/main/resources/templates/error_messages.xlsx"
								}
							]
						},
						"url": {
							"raw": "{{host}}/uploadErrorMessage",
							"host": [
								"{{host}}"
							],
							"path": [
								"uploadErrorMessage"
							]
						}
					},
					"response": []
				},
				{
					"name": "gigatech reponse",
					"request": {
						"method": "POST",
						"header": [
							{
								"key": "USER-TOKEN",
								"value": "eyJhbGciOiJIUzI1NiIsInR5cCI6IkpXVCJ9.eyJzdWIiOiJlS1lDMjAyMF90YmwiLCJuYW1lIjoiR0lHQVRFQ0giLCJpYXQiOjE1MTYyMzkwMjJ9.QXYh8P0veFgYo4xUO_MGPKq0_hxxJOpAKL5BhHGm3Mc",
								"type": "text"
							}
						],
						"body": {
							"mode": "raw",
							"raw": "{\r\n        \"status\": \"passed\",\r\n        \"detail\": {\r\n            \"nid_no\": \"9108058638\",\r\n            \"dob\": \"1993/07/21\",\r\n            \"gender\": \"Female\",\r\n            \"profession\": \"Service\",\r\n            \"nominee\": \"Tahmina Begum\",\r\n            \"nominee_relation\": \"Mother\",\r\n            \"applicant_name_eng\": \"NUSRAT MOMTAHANA MILO\",\r\n            \"applicant_name_eng_score\": 100,\r\n            \"applicant_name_ben\": \"নুসরাত মূমতাহানা মিলু\",\r\n            \"applicant_name_ben_score\": 95,\r\n            \"father_name\": \"নুরুল আমিন খান\",\r\n            \"father_name_score\": 100,\r\n            \"mother_name\": \"তাহমিনা বেগম\",\r\n            \"mother_name_score\": 100,\r\n            \"spouse_name\" :\"none\",\r\n            \"spouse_name_score\":0,\r\n            \"pres_address\": \"বাসা/হোল্ডিং: ১৫৩, গ্রাম/রাস্তা: পূর্ব  টেকপাড়া, কক্সবাজার, ডাকঘর: কক্সবাজার সদর -  ৪৭০০, কক্সবাজার সদর, কক্সবাজার পৌরসভা, কক্সবাজার\",\r\n            \"pres_address_score\": 85,\r\n            \"prem_address\": \"বাসা/হোল্ডিং: ১৫৩, গ্রাম/রাস্তা: পূর্ব  টেকপাড়া, কক্সবাজার, ডাকঘর: কক্সবাজার সদর -  ৪৭০০, কক্সবাজার সদর, কক্সবাজার পৌরসভা, কক্সবাজার\",\r\n            \"mobile_number\" :\"8801833184008\",\r\n            \"applicant_photo\" : \"\",\r\n            \"applicant_photo_score\":60\r\n        },\r\n        \"textual_info_match\": \"passed\",\r\n        \"applicant_photo_card_ec_match\": \"passed\",\r\n        \"applicant_photo_app_ec_match\": \"passed\"\r\n}",
							"options": {
								"raw": {
									"language": "json"
								}
							}
						},
						"url": {
							"raw": "{{host}}/ekyc_notification",
							"host": [
								"{{host}}"
							],
							"path": [
								"ekyc_notification"
							]
						}
					},
					"response": []
				},
				{
					"name": "user registration",
					"request": {
						"method": "POST",
						"header": [
							{
								"key": "Authorization",
								"type": "text",
								"value": "Bearer {{jwt}}",
								"disabled": true
							},
							{
								"key": "msisdn",
								"type": "text",
								"value": "{{msisdn}}",
								"disabled": true
							},
							{
								"key": "requestTime",
								"type": "text",
								"value": "{{requestTime}}",
								"disabled": true
							}
						],
						"body": {
							"mode": "raw",
							"raw": "{\r\n\t\"mobileNumber\" : \"01898762360\",\r\n\t\"nid\" : \"9127654890\",\r\n\t\"pin\" : \"{{pin}}\",\r\n\t\"firstName\" : \"Anis\",\r\n\t\"lastName\" : \"Ahmed\",\r\n\t\"gender\" : \"M\",\r\n\t\"accountType\" : \"GENERAL\",\r\n\t\"dob\" : \"21-07-1993\",\r\n\t\"occupation\" : \"Service\",\r\n\t\"mno\" : \"Airtel\"\r\n}\r\n",
							"options": {
								"raw": {
									"language": "json"
								}
							}
						},
						"url": {
							"raw": "{{host}}/user_registration",
							"host": [
								"{{host}}"
							],
							"path": [
								"user_registration"
							]
						}
					},
					"response": []
				},
				{
					"name": "test",
					"request": {
						"method": "POST",
						"header": [],
						"body": {
							"mode": "formdata",
							"formdata": [
								{
									"key": "lang",
									"value": "es",
									"type": "text"
								}
							],
							"options": {
								"raw": {
									"language": "json"
								}
							}
						},
						"url": {
							"raw": "{{host}}/test",
							"host": [
								"{{host}}"
							],
							"path": [
								"test"
							]
						}
					},
					"response": []
				}
			],
			"protocolProfileBehavior": {}
		},
		{
			"name": "getInstitution",
			"request": {
				"method": "GET",
				"header": [
					{
						"key": "Authorization",
						"type": "text",
						"value": "Bearer {{jwt}}"
					},
					{
						"key": "msisdn",
						"type": "text",
						"value": "{{msisdn}}"
					},
					{
						"key": "requestTime",
						"type": "text",
						"value": "{{requestTime}}"
					},
					{
						"key": "walletId",
						"value": "{{walletId}}",
						"type": "text"
					}
				],
				"url": {
					"raw": "{{host}}/getInstitution",
					"host": [
						"{{host}}"
					],
					"path": [
						"getInstitution"
					]
				}
			},
			"response": []
		},
		{
			"name": "getTransactionTypes",
			"request": {
				"method": "GET",
				"header": [
					{
						"key": "Authorization",
						"type": "text",
						"value": "Bearer {{jwt}}"
					},
					{
						"key": "msisdn",
						"type": "text",
						"value": "{{msisdn}}"
					},
					{
						"key": "requestTime",
						"type": "text",
						"value": "{{requestTime}}"
					},
					{
						"key": "walletId",
						"value": "{{walletId}}",
						"type": "text"
					}
				],
				"url": {
					"raw": "{{host}}/config-data",
					"host": [
						"{{host}}"
					],
					"path": [
						"config-data"
					]
				}
			},
			"response": []
		},
		{
			"name": "getUtility",
			"request": {
				"method": "GET",
				"header": [
					{
						"key": "Authorization",
						"type": "text",
						"value": "Bearer {{jwt}}"
					},
					{
						"key": "msisdn",
						"type": "text",
						"value": "{{msisdn}}"
					},
					{
						"key": "requestTime",
						"type": "text",
						"value": "{{requestTime}}"
					},
					{
						"key": "walletId",
						"value": "{{walletId}}",
						"type": "text"
					}
				],
				"url": {
					"raw": "{{host}}/getUtility",
					"host": [
						"{{host}}"
					],
					"path": [
						"getUtility"
					]
				}
			},
			"response": []
		},
		{
			"name": "check user status",
			"request": {
				"method": "POST",
				"header": [],
				"url": {
					"raw": "{{host}}/checkUser?msisdn=01833184008",
					"host": [
						"{{host}}"
					],
					"path": [
						"checkUser"
					],
					"query": [
						{
							"key": "msisdn",
							"value": "01833184008"
						}
					]
				}
			},
			"response": []
		},
		{
			"name": "getOthers",
			"request": {
				"method": "GET",
				"header": [
					{
						"key": "Authorization",
						"type": "text",
						"value": "Bearer {{jwt}}"
					},
					{
						"key": "msisdn",
						"type": "text",
						"value": "{{msisdn}}"
					},
					{
						"key": "requestTime",
						"type": "text",
						"value": "{{requestTime}}"
					},
					{
						"key": "walletId",
						"value": "{{walletId}}",
						"type": "text"
					}
				],
				"url": {
					"raw": "{{host}}/getOthers",
					"host": [
						"{{host}}"
					],
					"path": [
						"getOthers"
					]
				}
			},
			"response": []
		},
		{
			"name": "getInsurance",
			"request": {
				"method": "GET",
				"header": [
					{
						"key": "Authorization",
						"type": "text",
						"value": "Bearer {{jwt}}"
					},
					{
						"key": "msisdn",
						"type": "text",
						"value": "{{msisdn}}"
					},
					{
						"key": "requestTime",
						"type": "text",
						"value": "{{requestTime}}"
					},
					{
						"key": "walletId",
						"value": "{{walletId}}",
						"type": "text"
					}
				],
				"url": {
					"raw": "{{host}}/getInsurance",
					"host": [
						"{{host}}"
					],
					"path": [
						"getInsurance"
					]
				}
			},
			"response": []
		},
		{
			"name": "signOut",
			"request": {
				"method": "POST",
				"header": [
					{
						"key": "Authorization",
						"type": "text",
						"value": "Bearer {{jwt}}"
					},
					{
						"key": "msisdn",
						"type": "text",
						"value": "{{msisdn}}"
					},
					{
						"key": "requestTime",
						"type": "text",
						"value": "{{requestTime}}"
					},
					{
						"key": "walletId",
						"value": "{{walletId}}",
						"type": "text"
					}
				],
				"url": {
					"raw": "{{host}}/signOut",
					"host": [
						"{{host}}"
					],
					"path": [
						"signOut"
					]
				}
			},
			"response": []
		},
		{
			"name": "dpdc_bill",
			"request": {
				"method": "POST",
				"header": [
					{
						"key": "Authorization",
						"type": "text",
						"value": "Bearer {{jwt}}"
					},
					{
						"key": "msisdn",
						"type": "text",
						"value": "{{msisdn}}"
					},
					{
						"key": "requestTime",
						"type": "text",
						"value": "{{requestTime}}"
					},
					{
						"key": "walletId",
						"value": "{{walletId}}",
						"type": "text"
					}
				],
				"body": {
					"mode": "raw",
					"raw": "{\r\n\t\"locationCode\" : \"F2\",\r\n\t\"billMonth\" : \"202007\",\r\n\t\"accountNumber\": \"35159718\"\r\n}\r\n\r\n",
					"options": {
						"raw": {
							"language": "json"
						}
					}
				},
				"url": {
					"raw": "{{host}}/dpdc_bill",
					"host": [
						"{{host}}"
					],
					"path": [
						"dpdc_bill"
					]
				}
			},
			"response": []
		},
		{
			"name": "passpotPayment",
			"request": {
				"method": "POST",
				"header": [
					{
						"key": "Authorization",
						"type": "text",
						"value": "Bearer {{jwt}}"
					},
					{
						"key": "msisdn",
						"type": "text",
						"value": "{{msisdn}}"
					},
					{
						"key": "requestTime",
						"type": "text",
						"value": "{{requestTime}}"
					},
					{
						"key": "walletId",
						"value": "{{walletId}}",
						"type": "text"
					}
				],
				"body": {
					"mode": "raw",
					"raw": "{\r\n\t\"firstName\" : \"nusrat\",\r\n\t\"lastName\" : \"milo\",\r\n\t\"email\" : \"nusrat.momtahana@reddotdigitalit.com\",\r\n\t\"amount\" : 10,\r\n\t\"notificationNumber\" : \"01898762360\",\r\n\t\"pin\" : \"{{pin}}\"\r\n}",
					"options": {
						"raw": {
							"language": "json"
						}
					}
				},
				"url": {
					"raw": "{{host}}/passport_payment",
					"host": [
						"{{host}}"
					],
					"path": [
						"passport_payment"
					]
				}
			},
			"response": []
		},
		{
			"name": "user type",
			"protocolProfileBehavior": {
				"disableBodyPruning": true
			},
			"request": {
				"method": "GET",
				"header": [
					{
						"key": "Authorization",
						"type": "text",
						"value": "Bearer {{jwt}}"
					},
					{
						"key": "msisdn",
						"type": "text",
						"value": "{{msisdn}}"
					},
					{
						"key": "requestTime",
						"type": "text",
						"value": "{{requestTime}}"
					},
					{
						"key": "walletId",
						"value": "{{walletId}}",
						"type": "text"
					}
				],
				"body": {
					"mode": "raw",
					"raw": "",
					"options": {
						"raw": {
							"language": "json"
						}
					}
				},
				"url": {
					"raw": "{{host}}/user_type?userNumber=01833184008",
					"host": [
						"{{host}}"
					],
					"path": [
						"user_type"
					],
					"query": [
						{
							"key": "userNumber",
							"value": "01833184008"
						}
					]
				}
			},
			"response": []
		},
		{
			"name": "login",
			"event": [
				{
					"listen": "prerequest",
					"script": {
						"id": "1604614a-03c9-4893-8c0f-d0e50ef1ef50",
						"exec": [
							""
						],
						"type": "text/javascript"
					}
				},
				{
					"listen": "test",
					"script": {
						"id": "ca30c90a-bd11-4659-99de-57df237b04d1",
						"exec": [
							"var jsonData = JSON.parse(responseBody);",
							"postman.setEnvironmentVariable(\"jwt\", jsonData.jwt);"
						],
						"type": "text/javascript"
					}
				}
			],
			"request": {
				"method": "POST",
				"header": [],
				"body": {
					"mode": "raw",
					"raw": "{\n\t\"msisdn\" : \"{{msisdn}}\",\n\t\"pin\" : \"{{pin}}\",\n    \"walletId\":\"{{walletId}}\"\n}",
					"options": {
						"raw": {
							"language": "json"
						}
					}
				},
				"url": {
					"raw": "{{host}}/login",
					"host": [
						"{{host}}"
					],
					"path": [
						"login"
					]
				}
			},
			"response": []
		},
		{
			"name": "top_up",
			"request": {
				"method": "POST",
				"header": [
					{
						"key": "Authorization",
						"type": "text",
						"value": "Bearer {{jwt}}"
					},
					{
						"key": "msisdn",
						"type": "text",
						"value": "{{msisdn}}"
					},
					{
						"key": "requestTime",
						"type": "text",
						"value": "{{requestTime}}"
					}
				],
				"body": {
					"mode": "raw",
					"raw": "{\r\n\t\"recipientNumber\" : \"01833184009\",\r\n\t\"amount\" : 100,\r\n\t\"connectionType\" : \"Prepaid\",\r\n\t\"operator\" : \"Robi\",\r\n\t\"pin\" : \"{{pin}}\"\r\n}",
					"options": {
						"raw": {
							"language": "json"
						}
					}
				},
				"url": {
					"raw": "{{host}}/top_up",
					"host": [
						"{{host}}"
					],
					"path": [
						"top_up"
					]
				}
			},
			"response": []
		},
		{
			"name": "ekyc verify",
			"request": {
				"method": "POST",
				"header": [
					{
						"key": "Authorization",
						"type": "text",
						"value": "Bearer {{jwt}}"
					},
					{
						"key": "msisdn",
						"type": "text",
						"value": "{{msisdn}}"
					},
					{
						"key": "requestTime",
						"type": "text",
						"value": "{{requestTime}}"
					},
					{
						"key": "walletId",
						"value": "{{walletId}}",
						"type": "text"
					}
				],
				"body": {
					"mode": "formdata",
					"formdata": [
						{
							"key": "nid_no",
							"value": "9108058630",
							"type": "text"
						},
						{
							"key": "dob",
							"value": "1993/07/21",
							"type": "text"
						},
						{
							"key": "applicant_name_ben",
							"value": "নুসরাত মূমতাহানা মিলু",
							"type": "text"
						},
						{
							"key": "applicant_name_eng",
							"value": "NUSRAT MOMTAHANA MILO",
							"type": "text"
						},
						{
							"key": "father_name",
							"value": "নুরুল আমিন খান",
							"type": "text"
						},
						{
							"key": "mother_name",
							"value": "তাহমিনা বেগম",
							"type": "text"
						},
						{
							"key": "spouse_name",
							"value": "none",
							"type": "text"
						},
						{
							"key": "pres_address",
							"value": "বাসা/হোল্ডিং: ১৫৩, গ্রাম/রাস্তা: পূর্ব  টেকপাড়া, কক্সবাজার, ডাকঘর: কক্সবাজার সদর -  ৪৭০০, কক্সবাজার সদর, কক্সবাজার পৌরসভা, কক্সবাজার",
							"type": "text"
						},
						{
							"key": "perm_address",
							"value": "বাসা/হোল্ডিং: ১৫৩, গ্রাম/রাস্তা: পূর্ব  টেকপাড়া, কক্সবাজার, ডাকঘর: কক্সবাজার সদর -  ৪৭০০, কক্সবাজার সদর, কক্সবাজার পৌরসভা, কক্সবাজার",
							"type": "text"
						},
						{
							"key": "id_front_name",
							"value": "231e4f2a75abd78d7553cac824ad0040167135334aaa0d8549175323b888db9a.jpg",
							"type": "text"
						},
						{
							"key": "id_back_name",
							"value": "17291663723d89d54f9dbccad965a23e114451fd9b4b93ce0ebf2310259beed3.jpg",
							"type": "text"
						},
						{
							"key": "gender",
							"value": "Female",
							"type": "text"
						},
						{
							"key": "profession",
							"value": "Engineer",
							"type": "text"
						},
						{
							"key": "nominee",
							"value": "Tahmina Begum",
							"type": "text"
						},
						{
							"key": "nominee_relation",
							"value": "Mother",
							"type": "text"
						},
						{
							"key": "mobile_number",
							"value": "01833184000",
							"type": "text"
						},
						{
							"key": "applicant_photo",
							"type": "file",
							"src": "/C:/Users/NusratMomtahana/Downloads/PIC02.jpg"
						}
					],
					"options": {
						"formdata": {}
					}
				},
				"url": {
					"raw": "{{host}}/ekyc_verify",
					"host": [
						"{{host}}"
					],
					"path": [
						"ekyc_verify"
					],
					"query": [
						{
							"key": "crop",
							"value": "1",
							"disabled": true
						}
					]
				}
			},
			"response": []
		},
		{
			"name": "async registration",
			"request": {
				"method": "POST",
				"header": [],
				"body": {
					"mode": "raw",
					"raw": "{\r\n\t\"mobileNumber\" : \"01898762362\",\r\n\t\"nid\" : \"9127654890\",\r\n\t\"pin\" : \"{{pin}}\",\r\n\t\"firstName\" : \"Anis\",\r\n\t\"lastName\" : \"Ahmed\",\r\n\t\"gender\" : \"M\",\r\n\t\"accountType\" : \"GENERAL\",\r\n\t\"dob\" : \"21-07-1993\",\r\n\t\"occupation\" : \"Service\",\r\n\t\"mno\" : \"Airtel\",\r\n    \"deviceDto\": {\r\n        \"deviceUnqId\": \"C8PVCK9RJC72\",\r\n        \"osName\": \"iOS\",\r\n        \"osVersion\": \"13.6\",\r\n        \"manufacturer\": \"apple\",\r\n        \"osFirmWireBuild\": \"3.05.00\",\r\n        \"modelName\": \"iPhone x\",\r\n        \"macAddress\": \"40:98:AD:0A:DF:B1\",\r\n        \"imeiList\": \"35 67 6308 106763 2\",\r\n        \"firebaseDeviceToken\": \"dsaRhjbPQHaWKxlQMVT8Rb:APA91bET7t9AZGsOSrtldItwveIrTZpbt6FfTZ8WrJjM30G9sBYU4OP0yAst1t_N9rZlXBDTipRTBBttQHY-KMp9Q_z4CkjSudutkA2iqmtdkmoInOqMY6ynxrlSiH_F_h8rn8fF83Pc\",\r\n        \"rootDevice\": 1,\r\n        \"deviceInfoSignature\": \"3dd2edb4b57b83b9f425bbf009ac08960470a228\"\r\n    },\r\n    \"requestType\": \"NEW_REGISTRATION\"\r\n}",
					"options": {
						"raw": {
							"language": "json"
						}
					}
				},
				"url": {
					"raw": "{{host}}/async_registration",
					"host": [
						"{{host}}"
					],
					"path": [
						"async_registration"
					]
				}
			},
			"response": []
		},
		{
			"name": "nidUpload",
			"request": {
				"method": "POST",
				"header": [
					{
						"key": "Authorization",
						"value": "Bearer {{jwt}}",
						"type": "text"
					},
					{
						"key": "msisdn",
						"value": "{{msisdn}}",
						"type": "text"
					},
					{
						"key": "requestTime",
						"value": "{{requestTime}}",
						"type": "text"
					},
					{
						"key": "Content-Type",
						"value": "multipart/form-data",
						"type": "text"
					},
					{
						"key": "walletId",
						"value": "{{walletId}}",
						"type": "text"
					}
				],
				"body": {
					"mode": "formdata",
					"formdata": [
						{
							"key": "id_front",
							"type": "file",
							"src": "/C:/Users/NusratMomtahana/Downloads/Mahmudul_Haq_Parvez_1003498.jpg"
						},
						{
							"key": "id_back",
							"type": "file",
							"src": "/C:/Users/NusratMomtahana/Downloads/Mahmudul_Haq_Parvez_1003498.jpg"
						}
					],
					"options": {
						"formdata": {}
					}
				},
				"url": {
					"raw": "{{host}}/nidUpload",
					"host": [
						"{{host}}"
					],
					"path": [
						"nidUpload"
					],
					"query": [
						{
							"key": "step",
							"value": "1",
							"disabled": true
						},
						{
							"key": "crop",
							"value": "1",
							"disabled": true
						}
					]
				}
			},
			"response": []
		},
		{
			"name": "desco_prepaid",
			"request": {
				"method": "POST",
				"header": [
					{
						"key": "Authorization",
						"type": "text",
						"value": "Bearer {{jwt}}"
					},
					{
						"key": "msisdn",
						"type": "text",
						"value": "{{msisdn}}"
					},
					{
						"key": "requestTime",
						"type": "text",
						"value": "{{requestTime}}"
					},
					{
						"key": "walletId",
						"value": "{{walletId}}",
						"type": "text"
					}
				],
				"body": {
					"mode": "raw",
					"raw": "{\r\n\t\"meterNumber\" : \"661120022597\",\r\n\t\"notificationNumber\" : \"01898762360\",\r\n\t\"billAmount\" : 1,\r\n\t\"pin\" : \"{{pin}}\"\r\n}\r\n\r\n",
					"options": {
						"raw": {
							"language": "json"
						}
					}
				},
				"url": {
					"raw": "{{host}}/desco_prepaid",
					"host": [
						"{{host}}"
					],
					"path": [
						"desco_prepaid"
					]
				}
			},
			"response": []
		},
		{
			"name": "p2p",
			"request": {
				"method": "POST",
				"header": [
					{
						"key": "Authorization",
						"type": "text",
						"value": "Bearer {{jwt}}"
					},
					{
						"key": "msisdn",
						"type": "text",
						"value": "{{msisdn}}"
					},
					{
						"key": "requestTime",
						"type": "text",
						"value": "{{requestTime}}"
					},
					{
						"key": "walletId",
						"value": "{{walletId}}",
						"type": "text"
					}
				],
				"body": {
					"mode": "raw",
					"raw": "{\r\n\t\"recipientNumber\" : \"01833184008\",\r\n\t\"amount\" : 10,\r\n\t\"pin\" : \"{{pin}}\"\r\n}\r\n",
					"options": {
						"raw": {
							"language": "json"
						}
					}
				},
				"url": {
					"raw": "{{host}}/p2p",
					"host": [
						"{{host}}"
					],
					"path": [
						"p2p"
					]
				}
			},
			"response": []
		},
		{
			"name": "desco_postpaid",
			"request": {
				"method": "POST",
				"header": [
					{
						"key": "Authorization",
						"type": "text",
						"value": "Bearer {{jwt}}"
					},
					{
						"key": "msisdn",
						"type": "text",
						"value": "{{msisdn}}"
					},
					{
						"key": "requestTime",
						"type": "text",
						"value": "{{requestTime}}"
					},
					{
						"key": "walletId",
						"value": "{{walletId}}",
						"type": "text"
					}
				],
				"body": {
					"mode": "raw",
					"raw": "{\r\n\t\"billNumber\" : \"92374\",\r\n\t\"notificationNumber\" : \"01898762360\",\r\n\t\"pin\" : \"{{pin}}\"\r\n}\r\n\r\n",
					"options": {
						"raw": {
							"language": "json"
						}
					}
				},
				"url": {
					"raw": "{{host}}/desco_postpaid",
					"host": [
						"{{host}}"
					],
					"path": [
						"desco_postpaid"
					]
				}
			},
			"response": []
		},
		{
			"name": "generate-otp",
			"request": {
				"method": "POST",
				"header": [],
				"body": {
					"mode": "raw",
					"raw": "{\n\t\"serviceName\" : \"REGISTRATION\",\n\t\"deviceType\": \"ANDROID\",\n\t\"receiverInfo\" : \"{{msisdn}}\"\n}",
					"options": {
						"raw": {
							"language": "json"
						}
					}
				},
				"url": {
					"raw": "{{host}}/generate-otp",
					"host": [
						"{{host}}"
					],
					"path": [
						"generate-otp"
					]
				}
			},
			"response": []
		},
		{
			"name": "cash_out",
			"request": {
				"method": "POST",
				"header": [
					{
						"key": "Authorization",
						"type": "text",
						"value": "Bearer {{jwt}}"
					},
					{
						"key": "msisdn",
						"type": "text",
						"value": "{{msisdn}}"
					},
					{
						"key": "requestTime",
						"type": "text",
						"value": "{{requestTime}}"
					},
					{
						"key": "walletId",
						"value": "{{walletId}}",
						"type": "text"
					}
				],
				"body": {
					"mode": "raw",
					"raw": "{\n\t\"agentAccountNo\" : \"01867981406\",\n\t\"amount\" : 1,\n\t\"pin\" : \"{{pin}}\"\n}",
					"options": {
						"raw": {
							"language": "json"
						}
					}
				},
				"url": {
					"raw": "{{host}}/cash_out",
					"host": [
						"{{host}}"
					],
					"path": [
						"cash_out"
					]
				}
			},
			"response": []
		},
		{
			"name": "mini statement",
			"request": {
				"method": "POST",
				"header": [
					{
						"key": "Authorization",
						"type": "text",
						"value": "Bearer {{jwt}}"
					},
					{
						"key": "msisdn",
						"type": "text",
						"value": "{{msisdn}}"
					},
					{
						"key": "requestTime",
						"type": "text",
						"value": "{{requestTime}}"
					},
					{
						"key": "walletId",
						"value": "{{walletId}}",
						"type": "text"
					}
				],
				"body": {
					"mode": "raw",
					"raw": "",
					"options": {
						"raw": {
							"language": "json"
						}
					}
				},
				"url": {
					"raw": "{{host}}/mini_statement",
					"host": [
						"{{host}}"
					],
					"path": [
						"mini_statement"
					]
				}
			},
			"response": []
		},
		{
			"name": "limit info",
			"request": {
				"method": "POST",
				"header": [
					{
						"key": "Authorization",
						"type": "text",
						"value": "Bearer {{jwt}}"
					},
					{
						"key": "msisdn",
						"type": "text",
						"value": "{{msisdn}}"
					},
					{
						"key": "requestTime",
						"type": "text",
						"value": "{{requestTime}}"
					},
					{
						"key": "walletId",
						"value": "{{walletId}}",
						"type": "text"
					}
				],
				"body": {
					"mode": "raw",
					"raw": "",
					"options": {
						"raw": {
							"language": "json"
						}
					}
				},
				"url": {
					"raw": "{{host}}/limit_info",
					"host": [
						"{{host}}"
					],
					"path": [
						"limit_info"
					]
				}
			},
			"response": []
		},
		{
			"name": "CBS Account Info",
			"request": {
				"method": "POST",
				"header": [
					{
						"key": "Authorization",
						"type": "text",
						"value": "Bearer {{jwt}}"
					},
					{
						"key": "msisdn",
						"type": "text",
						"value": "{{msisdn}}"
					},
					{
						"key": "requestTime",
						"type": "text",
						"value": "{{requestTime}}"
					},
					{
						"key": "walletId",
						"value": "{{walletId}}",
						"type": "text"
					}
				],
				"body": {
					"mode": "raw",
					"raw": "",
					"options": {
						"raw": {
							"language": "json"
						}
					}
				},
				"url": {
					"raw": "{{host}}/core_banking_account_info",
					"host": [
						"{{host}}"
					],
					"path": [
						"core_banking_account_info"
					]
				}
			},
			"response": []
		},
		{
			"name": "pin update",
			"request": {
				"method": "POST",
				"header": [
					{
						"key": "Authorization",
						"type": "text",
						"value": "Bearer {{jwt}}"
					},
					{
						"key": "msisdn",
						"type": "text",
						"value": "{{msisdn}}"
					},
					{
						"key": "requestTime",
						"type": "text",
						"value": "{{requestTime}}"
					},
					{
						"key": "walletId",
						"value": "{{walletId}}",
						"type": "text"
					}
				],
				"body": {
					"mode": "raw",
					"raw": "{\r\n    \"oldPin\" : \"{{pin}}\",\r\n    \"newPin\" : \"MTIxMg==\"\r\n}",
					"options": {
						"raw": {
							"language": "json"
						}
					}
				},
				"url": {
					"raw": "{{host}}/update_pin",
					"host": [
						"{{host}}"
					],
					"path": [
						"update_pin"
					]
				}
			},
			"response": []
		},
		{
			"name": "deposit",
			"request": {
				"method": "POST",
				"header": [
					{
						"key": "Authorization",
						"type": "text",
						"value": "Bearer {{jwt}}"
					},
					{
						"key": "msisdn",
						"type": "text",
						"value": "{{msisdn}}"
					},
					{
						"key": "requestTime",
						"type": "text",
						"value": "{{requestTime}}"
					},
					{
						"key": "walletId",
						"value": "{{walletId}}",
						"type": "text"
					}
				],
				"body": {
					"mode": "raw",
					"raw": "{\r\n\t\"accountNumber\" : \"7017-0311044864\",\r\n\t\"amount\" : 1,\r\n\t\"pin\" : \"{{pin}}\"\r\n}",
					"options": {
						"raw": {
							"language": "json"
						}
					}
				},
				"url": {
					"raw": "{{host}}/deposit_money",
					"host": [
						"{{host}}"
					],
					"path": [
						"deposit_money"
					]
				}
			},
			"response": []
		},
		{
			"name": "tuitionPayment",
			"request": {
				"method": "POST",
				"header": [
					{
						"key": "Authorization",
						"type": "text",
						"value": "Bearer {{jwt}}"
					},
					{
						"key": "msisdn",
						"type": "text",
						"value": "{{msisdn}}"
					},
					{
						"key": "requestTime",
						"type": "text",
						"value": "{{requestTime}}"
					},
					{
						"key": "walletId",
						"value": "{{walletId}}",
						"type": "text"
					}
				],
				"body": {
					"mode": "raw",
					"raw": "{\r\n\t\"regNo\" : \"09\",\r\n\t\"numberOfMonth\" : \"2\",\r\n\t\"shortName\" : \"K\",\r\n\t\"pin\" : \"{{pin}}\",\r\n    \"institutionCode\" : \"MMA\"\r\n}",
					"options": {
						"raw": {
							"language": "json"
						}
					}
				},
				"url": {
					"raw": "{{host}}/tuitionPayment",
					"host": [
						"{{host}}"
					],
					"path": [
						"tuitionPayment"
					]
				}
			},
			"response": []
		},
		{
			"name": "merchantPayment",
			"request": {
				"method": "POST",
				"header": [
					{
						"key": "Authorization",
						"type": "text",
						"value": "Bearer {{jwt}}"
					},
					{
						"key": "msisdn",
						"type": "text",
						"value": "{{msisdn}}"
					},
					{
						"key": "requestTime",
						"type": "text",
						"value": "{{requestTime}}"
					},
					{
						"key": "walletId",
						"value": "{{walletId}}",
						"type": "text"
					}
				],
				"body": {
					"mode": "raw",
					"raw": "{\r\n\t\"recipientNumber\" : \"01898762360\",\r\n\t\"amount\" : 1,\r\n\t\"notificationNumber\" : \"01898762360\",\r\n\t\"purpose\" : \"Loan\",\r\n\t\"pin\" : \"{{pin}}\"\r\n}",
					"options": {
						"raw": {
							"language": "json"
						}
					}
				},
				"url": {
					"raw": "{{host}}/merchant_payment",
					"host": [
						"{{host}}"
					],
					"path": [
						"merchant_payment"
					]
				}
			},
			"response": []
		},
		{
			"name": "fee and charge",
			"request": {
				"method": "POST",
				"header": [
					{
						"key": "Authorization",
						"type": "text",
						"value": "Bearer {{jwt}}"
					},
					{
						"key": "msisdn",
						"type": "text",
						"value": "{{msisdn}}"
					},
					{
						"key": "requestTime",
						"type": "text",
						"value": "{{requestTime}}"
					},
					{
						"key": "walletId",
						"value": "{{walletId}}",
						"type": "text"
					}
				],
				"body": {
					"mode": "raw",
					"raw": "{\r\n\t\"fromUserNumber\":\"01833184008\",\r\n    \"toUserNumber\":\"8801710754881\",\r\n    \"transactionType\":\"PAY\",\r\n    \"amount\":5.0\r\n}",
					"options": {
						"raw": {
							"language": "json"
						}
					}
				},
				"url": {
					"raw": "{{host}}/fee_charge",
					"host": [
						"{{host}}"
					],
					"path": [
						"fee_charge"
					]
				}
			},
			"response": []
		},
		{
			"name": "dpdc_pay",
			"request": {
				"method": "POST",
				"header": [
					{
						"key": "Authorization",
						"type": "text",
						"value": "Bearer {{jwt}}"
					},
					{
						"key": "msisdn",
						"type": "text",
						"value": "{{msisdn}}"
					},
					{
						"key": "requestTime",
						"type": "text",
						"value": "{{requestTime}}"
					},
					{
						"key": "walletId",
						"value": "{{walletId}}",
						"type": "text"
					}
				],
				"body": {
					"mode": "raw",
					"raw": "{\r\n\t\"locationCode\" : \"E2\",\r\n\t\"billMonth\" : \"202001\",\r\n\t\"accountNumber\": \"21240\",\r\n    \"notificationNumber\" : \"01898762360\",\r\n\t\"pin\" : \"{{pin}}\"\r\n\r\n}\r\n\r\n",
					"options": {
						"raw": {
							"language": "json"
						}
					}
				},
				"url": {
					"raw": "{{host}}/dpdc_pay",
					"host": [
						"{{host}}"
					],
					"path": [
						"dpdc_pay"
					]
				}
			},
			"response": []
		},
		{
			"name": "flora_fund",
			"request": {
				"method": "POST",
				"header": [
					{
						"key": "Authorization",
						"type": "text",
						"value": "Bearer {{jwt}}"
					},
					{
						"key": "msisdn",
						"type": "text",
						"value": "{{msisdn}}"
					},
					{
						"key": "requestTime",
						"type": "text",
						"value": "{{requestTime}}"
					},
					{
						"key": "walletId",
						"value": "{{walletId}}",
						"type": "text"
					}
				],
				"body": {
					"mode": "raw",
					"raw": "{\r\n\t\"recipientAccount\" : \"1\",\r\n\t\"pin\" : \"{{pin}}\",\r\n\t\"amount\" : 300.0\r\n}\r\n",
					"options": {
						"raw": {
							"language": "json"
						}
					}
				},
				"url": {
					"raw": "{{host}}/flora_fund",
					"host": [
						"{{host}}"
					],
					"path": [
						"flora_fund"
					]
				}
			},
			"response": []
		},
		{
			"name": "balance check",
			"request": {
				"method": "POST",
				"header": [
					{
						"key": "Authorization",
						"type": "text",
						"value": "Bearer {{jwt}}"
					},
					{
						"key": "msisdn",
						"type": "text",
						"value": "{{msisdn}}"
					},
					{
						"key": "requestTime",
						"type": "text",
						"value": "{{requestTime}}"
					},
					{
						"key": "walletId",
						"value": "{{walletId}}",
						"type": "text"
					}
				],
				"body": {
					"mode": "raw",
					"raw": "",
					"options": {
						"raw": {
							"language": "json"
						}
					}
				},
				"url": {
					"raw": "{{host}}/check_balance",
					"host": [
						"{{host}}"
					],
					"path": [
						"check_balance"
					]
				}
			},
			"response": []
		},
		{
			"name": "insurancePayment",
			"request": {
				"method": "POST",
				"header": [
					{
						"key": "Authorization",
						"type": "text",
						"value": "Bearer {{jwt}}"
					},
					{
						"key": "msisdn",
						"type": "text",
						"value": "{{msisdn}}"
					},
					{
						"key": "requestTime",
						"type": "text",
						"value": "{{requestTime}}"
					},
					{
						"key": "walletId",
						"value": "{{walletId}}",
						"type": "text"
					}
				],
				"body": {
					"mode": "raw",
					"raw": "{\r\n\t\"code\" : \"MA\",\r\n\t\"amount\" : 1,\r\n\t\"notificationNumber\" : \"01898762360\",\r\n\t\"policyNo\" : 1234,\r\n\t\"pin\" : \"{{pin}}\"\r\n}",
					"options": {
						"raw": {
							"language": "json"
						}
					}
				},
				"url": {
					"raw": "{{host}}/insurancePayment",
					"host": [
						"{{host}}"
					],
					"path": [
						"insurancePayment"
					]
				}
			},
			"response": []
		},
		{
			"name": "nid services list",
			"protocolProfileBehavior": {
				"disableBodyPruning": true
			},
			"request": {
				"method": "GET",
				"header": [
					{
						"key": "Authorization",
						"type": "text",
						"value": "Bearer {{jwt}}"
					},
					{
						"key": "msisdn",
						"type": "text",
						"value": "{{msisdn}}"
					},
					{
						"key": "requestTime",
						"type": "text",
						"value": "{{requestTime}}"
					},
					{
						"key": "walletId",
						"value": "{{walletId}}",
						"type": "text"
					}
				],
				"body": {
					"mode": "raw",
					"raw": "",
					"options": {
						"raw": {
							"language": "json"
						}
					}
				},
				"url": {
					"raw": "{{host}}/nid_services",
					"host": [
						"{{host}}"
					],
					"path": [
						"nid_services"
					]
				}
			},
			"response": []
		},
		{
			"name": "desco_bill prepaid",
			"request": {
				"method": "POST",
				"header": [
					{
						"key": "Authorization",
						"type": "text",
						"value": "Bearer {{jwt}}"
					},
					{
						"key": "msisdn",
						"type": "text",
						"value": "{{msisdn}}"
					},
					{
						"key": "requestTime",
						"type": "text",
						"value": "{{requestTime}}"
					},
					{
						"key": "Accept-Language",
						"value": "bn",
						"type": "text"
					},
					{
						"key": "walletId",
						"value": "{{walletId}}",
						"type": "text"
					}
				],
				"body": {
					"mode": "raw",
					"raw": "\r\n",
					"options": {
						"raw": {
							"language": "json"
						}
					}
				},
				"url": {
					"raw": "{{host}}/desco_prepaid_bill?meterNo=661120022597&amount=500",
					"host": [
						"{{host}}"
					],
					"path": [
						"desco_prepaid_bill"
					],
					"query": [
						{
							"key": "meterNo",
							"value": "661120022597"
						},
						{
							"key": "amount",
							"value": "500"
						}
					]
				}
			},
			"response": []
		},
		{
			"name": "nidFeePayment",
			"request": {
				"method": "POST",
				"header": [
					{
						"key": "Authorization",
						"type": "text",
						"value": "Bearer {{jwt}}"
					},
					{
						"key": "msisdn",
						"type": "text",
						"value": "{{msisdn}}"
					},
					{
						"key": "requestTime",
						"type": "text",
						"value": "{{requestTime}}"
					},
					{
						"key": "walletId",
						"value": "{{walletId}}",
						"type": "text"
					}
				],
				"body": {
					"mode": "raw",
					"raw": "{\r\n\t\"nidNo\" : \"0963485359\",\r\n\t\"serviceType\" : \"correction\",\r\n\t\"correctionType\" : \"name\",\r\n\t\"notificationNumber\" : \"01898762360\",\r\n\t\"pin\" : \"{{pin}}\"\r\n}",
					"options": {
						"raw": {
							"language": "json"
						}
					}
				},
				"url": {
					"raw": "{{host}}/nid_payment",
					"host": [
						"{{host}}"
					],
					"path": [
						"nid_payment"
					]
				}
			},
			"response": []
		},
		{
			"name": "validate-otp",
			"request": {
				"method": "POST",
				"header": [
					{
						"key": "Authorization",
						"type": "text",
						"value": "Bearer eyJhbGciOiJIUzI1NiJ9.eyJzdWIiOiIwMTgzMzE4NDAwOCIsImV4cCI6MTU5MTE2NTAxNywiaWF0IjoxNTkxMTY0NzE3fQ.c9fkYHROHWXcd38QR6xfOa8Xr_SmfA7KUEYAmauibOU",
						"disabled": true
					},
					{
						"key": "msisdn",
						"type": "text",
						"value": "01833184009",
						"disabled": true
					},
					{
						"key": "requestTime",
						"type": "text",
						"value": "1591164370719",
						"disabled": true
					},
					{
						"key": "walletId",
						"value": "",
						"type": "text",
						"disabled": true
					}
				],
				"body": {
					"mode": "raw",
					"raw": "{\n\t\"otp\" :111111,\n\t\"otpReferenceId\":\"78f481b2-aca6-4033-892c-98cf392111df\",\n\t\"receiverInfo\" :  \"{{msisdn}}\"\n}",
					"options": {
						"raw": {
							"language": "json"
						}
					}
				},
				"url": {
					"raw": "{{host}}/validate-otp",
					"host": [
						"{{host}}"
					],
					"path": [
						"validate-otp"
					]
				}
			},
			"response": []
		},
		{
			"name": "desco_bill postpaid",
			"request": {
				"method": "POST",
				"header": [
					{
						"key": "Authorization",
						"type": "text",
						"value": "Bearer {{jwt}}"
					},
					{
						"key": "msisdn",
						"type": "text",
						"value": "{{msisdn}}"
					},
					{
						"key": "requestTime",
						"type": "text",
						"value": "{{requestTime}}"
					},
					{
						"key": "walletId",
						"value": "{{walletId}}",
						"type": "text"
					}
				],
				"body": {
					"mode": "raw",
					"raw": "\r\n",
					"options": {
						"raw": {
							"language": "json"
						}
					}
				},
				"url": {
					"raw": "{{host}}/desco_bill?billNo=092017024405",
					"host": [
						"{{host}}"
					],
					"path": [
						"desco_bill"
					],
					"query": [
						{
							"key": "billNo",
							"value": "092017024405"
						}
					]
				}
			},
			"response": []
		},
		{
			"name": "device_registration",
			"request": {
				"method": "POST",
				"header": [],
				"body": {
					"mode": "raw",
					"raw": "{\r\n    \"userDto\": {\r\n        \"msisdn\": \"01898762366\",\r\n        \"userName\": \"Nusrat Momtahana\"\r\n    },\r\n    \"deviceDto\": {\r\n        \"deviceUnqId\": \"C8PVCK9RJC72\",\r\n        \"osName\": \"iOS\",\r\n        \"osVersion\": \"13.6\",\r\n        \"manufacturer\": \"apple\",\r\n        \"osFirmWireBuild\": \"3.05.00\",\r\n        \"modelName\": \"iPhone x\",\r\n        \"macAddress\": \"40:98:AD:0A:DF:B1\",\r\n        \"imeiList\": \"35 67 6308 106763 2\",\r\n        \"firebaseDeviceToken\": \"qwerty12368\",\r\n        \"rootDevice\": 1,\r\n        \"deviceInfoSignature\": \"3dd2edb4b57b83b9f425bbf009ac08960470a228\"\r\n    },\r\n    \"requestType\": \"NEW_REGISTRATION\"\r\n}\r\n\r\n    ",
					"options": {
						"raw": {
							"language": "json"
						}
					}
				},
				"url": {
					"raw": "http://localhost:9090/api_middleware-0.0.1-SNAPSHOT/create_wallet",
					"protocol": "http",
					"host": [
						"localhost"
					],
					"port": "9090",
					"path": [
						"api_middleware-0.0.1-SNAPSHOT",
						"create_wallet"
					]
				}
			},
			"response": []
		},
		{
			"name": "check_wallet_status",
			"request": {
				"method": "POST",
				"header": [],
				"url": {
					"raw": "http://localhost:9090/api_middleware-0.0.1-SNAPSHOT/check-wallet?walletId={{walletId}}",
					"protocol": "http",
					"host": [
						"localhost"
					],
					"port": "9090",
					"path": [
						"api_middleware-0.0.1-SNAPSHOT",
						"check-wallet"
					],
					"query": [
						{
							"key": "walletId",
							"value": "{{walletId}}"
						}
					]
				}
			},
			"response": []
		},
		{
			"name": "get forceupdate version",
			"request": {
				"method": "GET",
				"header": [],
				"url": {
					"raw": "http://localhost:9090/api_middleware-0.0.1-SNAPSHOT/check_forceupdate_version?platform=IOS",
					"protocol": "http",
					"host": [
						"localhost"
					],
					"port": "9090",
					"path": [
						"api_middleware-0.0.1-SNAPSHOT",
						"check_forceupdate_version"
					],
					"query": [
						{
							"key": "platform",
							"value": "IOS"
						}
					]
				}
			},
			"response": []
		},
		{
			"name": "set forceupdate version",
			"request": {
				"method": "POST",
				"header": [],
				"body": {
					"mode": "raw",
					"raw": "{\r\n    \"forceUpdateVersion\":\"3\",\r\n    \"blacklistVersion\":\"5\",\r\n    \"platform\":\"IOS\"\r\n}",
					"options": {
						"raw": {
							"language": "json"
						}
					}
				},
				"url": {
					"raw": "http://localhost:9090/api_middleware-0.0.1-SNAPSHOT/force_update_blacklist",
					"protocol": "http",
					"host": [
						"localhost"
					],
					"port": "9090",
					"path": [
						"api_middleware-0.0.1-SNAPSHOT",
						"force_update_blacklist"
					]
				}
			},
			"response": []
		}
	],
	"protocolProfileBehavior": {}
}